{
	"__comment": "Designed by Darkhawx with Cubik Studio - https://cubik.studio",
	"textures": {
		"particle": "blocks/e_particle",
		"stone": "blocks/e_texture",
		"jade": "blocks/e_texture",
		"blood": "blocks/e_texture",
		"heart_red": "blocks/e_texture",
		"heart_blue": "blocks/e_texture"
	},
	"elements": [ 	 
		{
			"__comment": "Box1",
			"from": [ 1, 1, 1 ],
			"to": [ 15, 8, 15 ],
			"faces": {
				"down": { "uv": [ 1, 1, 15, 15 ], "texture": "#stone" },
				"up": { "uv": [ 1, 1, 15, 15 ], "texture": "#stone" },
				"north": { "uv": [ 1, 8, 15, 15 ], "texture": "#stone" },
				"south": { "uv": [ 1, 8, 15, 15 ], "texture": "#stone" },
				"west": { "uv": [ 1, 8, 15, 15 ], "texture": "#stone" },
				"east": { "uv": [ 1, 8, 15, 15 ], "texture": "#stone" }
			}
		},
		{
			"__comment": "Box2",
			"from": [ 0, 2, 1 ],
			"to": [ 1, 7, 15 ],
			"faces": {
				"down": { "uv": [ 0, 1, 1, 15 ], "texture": "#stone" },
				"up": { "uv": [ 0, 1, 1, 15 ], "texture": "#stone" },
				"north": { "uv": [ 15, 9, 16, 14 ], "texture": "#stone" },
				"south": { "uv": [ 0, 9, 1, 14 ], "texture": "#stone" },
				"west": { "uv": [ 1, 9, 15, 14 ], "texture": "#stone", "cullface": "west" }
			}
		},
		{
			"__comment": "Box2",
			"from": [ 15, 2, 1 ],
			"to": [ 16, 7, 15 ],
			"faces": {
				"down": { "uv": [ 15, 1, 16, 15 ], "texture": "#stone" },
				"up": { "uv": [ 15, 1, 16, 15 ], "texture": "#stone" },
				"north": { "uv": [ 0, 9, 1, 14 ], "texture": "#stone" },
				"south": { "uv": [ 15, 9, 16, 14 ], "texture": "#stone" },
				"east": { "uv": [ 1, 9, 15, 14 ], "texture": "#stone", "cullface": "east" }
			}
		},
		{
			"__comment": "Box2",
			"from": [ 1, 2, 0 ],
			"to": [ 15, 7, 1 ],
			"faces": {
				"down": { "uv": [ 1, 15, 15, 16 ], "texture": "#stone" },
				"up": { "uv": [ 1, 0, 15, 1 ], "texture": "#stone" },
				"north": { "uv": [ 1, 9, 15, 14 ], "texture": "#stone", "cullface": "north" },
				"west": { "uv": [ 0, 9, 1, 14 ], "texture": "#stone" },
				"east": { "uv": [ 15, 9, 16, 14 ], "texture": "#stone" }
			}
		},
		{
			"__comment": "Box2",
			"from": [ 1, 2, 15 ],
			"to": [ 15, 7, 16 ],
			"faces": {
				"down": { "uv": [ 1, 0, 15, 1 ], "texture": "#stone" },
				"up": { "uv": [ 1, 15, 15, 16 ], "texture": "#stone" },
				"south": { "uv": [ 1, 9, 15, 14 ], "texture": "#stone", "cullface": "south" },
				"west": { "uv": [ 15, 9, 16, 14 ], "texture": "#stone" },
				"east": { "uv": [ 0, 9, 1, 14 ], "texture": "#stone" }
			}
		},
		{
			"__comment": "Box2",
			"from": [ 0, 7, 2 ],
			"to": [ 1, 8, 14 ],
			"faces": {
				"up": { "uv": [ 0, 2, 1, 14 ], "texture": "#stone" },
				"north": { "uv": [ 15, 8, 16, 9 ], "texture": "#stone" },
				"south": { "uv": [ 0, 8, 1, 9 ], "texture": "#stone" },
				"west": { "uv": [ 2, 8, 14, 9 ], "texture": "#stone", "cullface": "west" }
			}
		},
		{
			"__comment": "Box2",
			"from": [ 15, 7, 2 ],
			"to": [ 16, 8, 14 ],
			"faces": {
				"up": { "uv": [ 15, 2, 16, 14 ], "texture": "#stone" },
				"north": { "uv": [ 0, 8, 1, 9 ], "texture": "#stone" },
				"south": { "uv": [ 15, 8, 16, 9 ], "texture": "#stone" },
				"east": { "uv": [ 2, 8, 14, 9 ], "texture": "#stone", "cullface": "east" }
			}
		},
		{
			"__comment": "Box2",
			"from": [ 2, 7, 0 ],
			"to": [ 14, 8, 1 ],
			"faces": {
				"up": { "uv": [ 2, 0, 14, 1 ], "texture": "#stone" },
				"north": { "uv": [ 2, 8, 14, 9 ], "texture": "#stone", "cullface": "north" },
				"west": { "uv": [ 0, 8, 1, 9 ], "texture": "#stone" },
				"east": { "uv": [ 15, 8, 16, 9 ], "texture": "#stone" }
			}
		},
		{
			"__comment": "Box2",
			"from": [ 2, 7, 15 ],
			"to": [ 14, 8, 16 ],
			"faces": {
				"up": { "uv": [ 2, 15, 14, 16 ], "texture": "#stone" },
				"south": { "uv": [ 2, 8, 14, 9 ], "texture": "#stone", "cullface": "south" },
				"west": { "uv": [ 15, 8, 16, 9 ], "texture": "#stone" },
				"east": { "uv": [ 0, 8, 1, 9 ], "texture": "#stone" }
			}
		},
		{
			"__comment": "Box2",
			"from": [ 0, 1, 2 ],
			"to": [ 1, 2, 14 ],
			"faces": {
				"down": { "uv": [ 0, 2, 1, 14 ], "texture": "#stone" },
				"north": { "uv": [ 15, 14, 16, 15 ], "texture": "#stone" },
				"south": { "uv": [ 0, 14, 1, 15 ], "texture": "#stone" },
				"west": { "uv": [ 2, 14, 14, 15 ], "texture": "#stone", "cullface": "west" }
			}
		},
		{
			"__comment": "Box1",
			"from": [ 2, 0, 2 ],
			"to": [ 14, 1, 14 ],
			"faces": {
				"down": { "uv": [ 2, 2, 14, 14 ], "texture": "#stone", "cullface": "down" }
			}
		},
		{
			"__comment": "Box2",
			"from": [ 1, 0, 2 ],
			"to": [ 2, 1, 14 ],
			"faces": {
				"down": { "uv": [ 1, 2, 2, 14 ], "texture": "#stone", "cullface": "down" },
				"north": { "uv": [ 14, 15, 15, 16 ], "texture": "#stone" },
				"south": { "uv": [ 1, 15, 2, 16 ], "texture": "#stone" },
				"west": { "uv": [ 2, 15, 14, 16 ], "texture": "#stone" }
			}
		},
		{
			"__comment": "Box2",
			"from": [ 14, 0, 2 ],
			"to": [ 15, 1, 14 ],
			"faces": {
				"down": { "uv": [ 14, 2, 15, 14 ], "texture": "#stone", "cullface": "down" },
				"north": { "uv": [ 1, 15, 2, 16 ], "texture": "#stone" },
				"south": { "uv": [ 14, 15, 15, 16 ], "texture": "#stone" },
				"east": { "uv": [ 2, 15, 14, 16 ], "texture": "#stone" }
			}
		},
		{
			"__comment": "Box2",
			"from": [ 2, 0, 1 ],
			"to": [ 14, 1, 2 ],
			"faces": {
				"down": { "uv": [ 2, 14, 14, 15 ], "texture": "#stone", "cullface": "down" },
				"north": { "uv": [ 2, 15, 14, 16 ], "texture": "#stone" },
				"west": { "uv": [ 1, 15, 2, 16 ], "texture": "#stone" },
				"east": { "uv": [ 14, 15, 15, 16 ], "texture": "#stone" }
			}
		},
		{
			"__comment": "Box2",
			"from": [ 2, 0, 14 ],
			"to": [ 14, 1, 15 ],
			"faces": {
				"down": { "uv": [ 2, 1, 14, 2 ], "texture": "#stone", "cullface": "down" },
				"south": { "uv": [ 2, 15, 14, 16 ], "texture": "#stone" },
				"west": { "uv": [ 14, 15, 15, 16 ], "texture": "#stone" },
				"east": { "uv": [ 1, 15, 2, 16 ], "texture": "#stone" }
			}
		},
		{
			"__comment": "Box2",
			"from": [ 15, 1, 2 ],
			"to": [ 16, 2, 14 ],
			"faces": {
				"down": { "uv": [ 15, 2, 16, 14 ], "texture": "#stone" },
				"north": { "uv": [ 0, 14, 1, 15 ], "texture": "#stone" },
				"south": { "uv": [ 15, 14, 16, 15 ], "texture": "#stone" },
				"east": { "uv": [ 2, 14, 14, 15 ], "texture": "#stone", "cullface": "east" }
			}
		},
		{
			"__comment": "Box2",
			"from": [ 2, 1, 0 ],
			"to": [ 14, 2, 1 ],
			"faces": {
				"down": { "uv": [ 2, 15, 14, 16 ], "texture": "#stone" },
				"north": { "uv": [ 2, 14, 14, 15 ], "texture": "#stone", "cullface": "north" },
				"west": { "uv": [ 0, 14, 1, 15 ], "texture": "#stone" },
				"east": { "uv": [ 15, 14, 16, 15 ], "texture": "#stone" }
			}
		},
		{
			"__comment": "Box2",
			"from": [ 2, 1, 15 ],
			"to": [ 14, 2, 16 ],
			"faces": {
				"down": { "uv": [ 2, 0, 14, 1 ], "texture": "#stone" },
				"south": { "uv": [ 2, 14, 14, 15 ], "texture": "#stone", "cullface": "south" },
				"west": { "uv": [ 15, 14, 16, 15 ], "texture": "#stone" },
				"east": { "uv": [ 0, 14, 1, 15 ], "texture": "#stone" }
			}
		},
		{
			"__comment": "Box19",
			"from": [ 2, 8, 2 ],
			"to": [ 14, 9, 14 ],
			"faces": {
				"up": { "uv": [ 2, 2, 14, 14 ], "texture": "#jade" },
				"north": { "uv": [ 2, 7, 14, 8 ], "texture": "#jade" },
				"south": { "uv": [ 2, 7, 14, 8 ], "texture": "#jade" },
				"west": { "uv": [ 2, 7, 14, 8 ], "texture": "#jade" },
				"east": { "uv": [ 2, 7, 14, 8 ], "texture": "#jade" }
			}
		},
		{
			"__comment": "Box19",
			"from": [ 3, 8, 1 ],
			"to": [ 13, 9, 2 ],
			"faces": {
				"up": { "uv": [ 3, 1, 13, 2 ], "texture": "#jade" },
				"north": { "uv": [ 3, 7, 13, 8 ], "texture": "#jade" },
				"west": { "uv": [ 1, 7, 2, 8 ], "texture": "#jade" },
				"east": { "uv": [ 14, 7, 15, 8 ], "texture": "#jade" }
			}
		},
		{
			"__comment": "Box19",
			"from": [ 3, 8, 14 ],
			"to": [ 13, 9, 15 ],
			"faces": {
				"up": { "uv": [ 3, 14, 13, 15 ], "texture": "#jade" },
				"south": { "uv": [ 3, 7, 13, 8 ], "texture": "#jade" },
				"west": { "uv": [ 14, 7, 15, 8 ], "texture": "#jade" },
				"east": { "uv": [ 1, 7, 2, 8 ], "texture": "#jade" }
			}
		},
		{
			"__comment": "Box19",
			"from": [ 1, 8, 3 ],
			"to": [ 2, 9, 13 ],
			"faces": {
				"up": { "uv": [ 1, 3, 2, 13 ], "texture": "#jade" },
				"north": { "uv": [ 14, 7, 15, 8 ], "texture": "#jade" },
				"south": { "uv": [ 1, 7, 2, 8 ], "texture": "#jade" },
				"west": { "uv": [ 3, 7, 13, 8 ], "texture": "#jade" }
			}
		},
		{
			"__comment": "Box19",
			"from": [ 14, 8, 3 ],
			"to": [ 15, 9, 13 ],
			"faces": {
				"up": { "uv": [ 14, 3, 15, 13 ], "texture": "#jade" },
				"north": { "uv": [ 1, 7, 2, 8 ], "texture": "#jade" },
				"south": { "uv": [ 14, 7, 15, 8 ], "texture": "#jade" },
				"east": { "uv": [ 3, 7, 13, 8 ], "texture": "#jade" }
			}
		},
		{
			"__comment": "Box19",
			"from": [ 0, 8, 5 ],
			"to": [ 1, 9, 11 ],
			"faces": {
				"north": { "uv": [ 15, 7, 16, 8 ], "texture": "#jade" },
				"south": { "uv": [ 0, 7, 1, 8 ], "texture": "#jade" },
				"west": { "uv": [ 5, 7, 11, 8 ], "texture": "#jade", "cullface": "west" }
			}
		},
		{
			"__comment": "Box19",
			"from": [ 15, 8, 5 ],
			"to": [ 16, 9, 11 ],
			"faces": {
				"north": { "uv": [ 0, 7, 1, 8 ], "texture": "#jade" },
				"south": { "uv": [ 15, 7, 16, 8 ], "texture": "#jade" },
				"east": { "uv": [ 5, 7, 11, 8 ], "texture": "#jade", "cullface": "east" }
			}
		},
		{
			"__comment": "Box19",
			"from": [ 5, 8, 0 ],
			"to": [ 11, 9, 1 ],
			"faces": {
				"north": { "uv": [ 5, 7, 11, 8 ], "texture": "#jade", "cullface": "north" },
				"west": { "uv": [ 0, 7, 1, 8 ], "texture": "#jade" },
				"east": { "uv": [ 15, 7, 16, 8 ], "texture": "#jade" }
			}
		},
		{
			"__comment": "Box19",
			"from": [ 5, 8, 15 ],
			"to": [ 11, 9, 16 ],
			"faces": {
				"south": { "uv": [ 5, 7, 11, 8 ], "texture": "#jade", "cullface": "south" },
				"west": { "uv": [ 15, 7, 16, 8 ], "texture": "#jade" },
				"east": { "uv": [ 0, 7, 1, 8 ], "texture": "#jade" }
			}
		},
		{
			"__comment": "Box28",
			"from": [ 3, 9, 0 ],
			"to": [ 13, 11, 1 ],
			"faces": {
				"down": { "uv": [ 3, 15, 13, 16 ], "texture": "#jade" },
				"up": { "uv": [ 3, 0, 13, 1 ], "texture": "#jade" },
				"north": { "uv": [ 3, 5, 13, 7 ], "texture": "#jade", "cullface": "north" },
				"south": { "uv": [ 3, 5, 13, 7 ], "texture": "#jade" },
				"west": { "uv": [ 0, 5, 1, 7 ], "texture": "#jade" },
				"east": { "uv": [ 15, 5, 16, 7 ], "texture": "#jade" }
			}
		},
		{
			"__comment": "Box28",
			"from": [ 3, 9, 15 ],
			"to": [ 13, 11, 16 ],
			"faces": {
				"down": { "uv": [ 3, 0, 13, 1 ], "texture": "#jade" },
				"up": { "uv": [ 3, 15, 13, 16 ], "texture": "#jade" },
				"north": { "uv": [ 3, 5, 13, 7 ], "texture": "#jade" },
				"south": { "uv": [ 3, 5, 13, 7 ], "texture": "#jade", "cullface": "south" },
				"west": { "uv": [ 15, 5, 16, 7 ], "texture": "#jade" },
				"east": { "uv": [ 0, 5, 1, 7 ], "texture": "#jade" }
			}
		},
		{
			"__comment": "Box28",
			"from": [ 0, 9, 3 ],
			"to": [ 1, 11, 13 ],
			"faces": {
				"down": { "uv": [ 0, 3, 1, 13 ], "texture": "#jade" },
				"up": { "uv": [ 0, 3, 1, 13 ], "texture": "#jade" },
				"north": { "uv": [ 15, 5, 16, 7 ], "texture": "#jade" },
				"south": { "uv": [ 0, 5, 1, 7 ], "texture": "#jade" },
				"west": { "uv": [ 3, 5, 13, 7 ], "texture": "#jade", "cullface": "west" },
				"east": { "uv": [ 3, 5, 13, 7 ], "texture": "#jade" }
			}
		},
		{
			"__comment": "Box28",
			"from": [ 15, 9, 3 ],
			"to": [ 16, 11, 13 ],
			"faces": {
				"down": { "uv": [ 15, 3, 16, 13 ], "texture": "#jade" },
				"up": { "uv": [ 15, 3, 16, 13 ], "texture": "#jade" },
				"north": { "uv": [ 0, 5, 1, 7 ], "texture": "#jade" },
				"south": { "uv": [ 15, 5, 16, 7 ], "texture": "#jade" },
				"west": { "uv": [ 3, 5, 13, 7 ], "texture": "#jade" },
				"east": { "uv": [ 3, 5, 13, 7 ], "texture": "#jade", "cullface": "east" }
			}
		},
		{
			"__comment": "Box28",
			"from": [ 1, 9, 2 ],
			"to": [ 2, 10, 5 ],
			"faces": {
				"down": { "uv": [ 1, 11, 2, 14 ], "texture": "#jade" },
				"up": { "uv": [ 1, 2, 2, 5 ], "texture": "#jade" },
				"north": { "uv": [ 14, 6, 15, 7 ], "texture": "#jade" },
				"south": { "uv": [ 1, 6, 2, 7 ], "texture": "#jade" },
				"west": { "uv": [ 2, 6, 5, 7 ], "texture": "#jade" },
				"east": { "uv": [ 11, 6, 14, 7 ], "texture": "#jade" }
			}
		},
		{
			"__comment": "Box28",
			"from": [ 14, 9, 2 ],
			"to": [ 15, 10, 5 ],
			"faces": {
				"down": { "uv": [ 14, 11, 15, 14 ], "texture": "#jade" },
				"up": { "uv": [ 14, 2, 15, 5 ], "texture": "#jade" },
				"north": { "uv": [ 1, 6, 2, 7 ], "texture": "#jade" },
				"south": { "uv": [ 14, 6, 15, 7 ], "texture": "#jade" },
				"west": { "uv": [ 2, 6, 5, 7 ], "texture": "#jade" },
				"east": { "uv": [ 11, 6, 14, 7 ], "texture": "#jade" }
			}
		},
		{
			"__comment": "Box28",
			"from": [ 1, 9, 11 ],
			"to": [ 2, 10, 14 ],
			"faces": {
				"down": { "uv": [ 1, 2, 2, 5 ], "texture": "#jade" },
				"up": { "uv": [ 1, 11, 2, 14 ], "texture": "#jade" },
				"north": { "uv": [ 14, 6, 15, 7 ], "texture": "#jade" },
				"south": { "uv": [ 1, 6, 2, 7 ], "texture": "#jade" },
				"west": { "uv": [ 11, 6, 14, 7 ], "texture": "#jade" },
				"east": { "uv": [ 2, 6, 5, 7 ], "texture": "#jade" }
			}
		},
		{
			"__comment": "Box28",
			"from": [ 14, 9, 11 ],
			"to": [ 15, 10, 14 ],
			"faces": {
				"down": { "uv": [ 14, 2, 15, 5 ], "texture": "#jade" },
				"up": { "uv": [ 14, 11, 15, 14 ], "texture": "#jade" },
				"north": { "uv": [ 1, 6, 2, 7 ], "texture": "#jade" },
				"south": { "uv": [ 14, 6, 15, 7 ], "texture": "#jade" },
				"west": { "uv": [ 11, 6, 14, 7 ], "texture": "#jade" },
				"east": { "uv": [ 2, 6, 5, 7 ], "texture": "#jade" }
			}
		},
		{
			"__comment": "Box28",
			"from": [ 2, 9, 1 ],
			"to": [ 5, 10, 2 ],
			"faces": {
				"down": { "uv": [ 2, 14, 5, 15 ], "texture": "#jade" },
				"up": { "uv": [ 2, 1, 5, 2 ], "texture": "#jade" },
				"north": { "uv": [ 11, 6, 14, 7 ], "texture": "#jade" },
				"south": { "uv": [ 2, 6, 5, 7 ], "texture": "#jade" },
				"west": { "uv": [ 1, 6, 2, 7 ], "texture": "#jade" },
				"east": { "uv": [ 14, 6, 15, 7 ], "texture": "#jade" }
			}
		},
		{
			"__comment": "Box28",
			"from": [ 11, 9, 1 ],
			"to": [ 14, 10, 2 ],
			"faces": {
				"down": { "uv": [ 11, 14, 14, 15 ], "texture": "#jade" },
				"up": { "uv": [ 11, 1, 14, 2 ], "texture": "#jade" },
				"north": { "uv": [ 2, 6, 5, 7 ], "texture": "#jade" },
				"south": { "uv": [ 11, 6, 14, 7 ], "texture": "#jade" },
				"west": { "uv": [ 1, 6, 2, 7 ], "texture": "#jade" },
				"east": { "uv": [ 14, 6, 15, 7 ], "texture": "#jade" }
			}
		},
		{
			"__comment": "Box28",
			"from": [ 2, 9, 14 ],
			"to": [ 5, 10, 15 ],
			"faces": {
				"down": { "uv": [ 2, 1, 5, 2 ], "texture": "#jade" },
				"up": { "uv": [ 2, 14, 5, 15 ], "texture": "#jade" },
				"north": { "uv": [ 11, 6, 14, 7 ], "texture": "#jade" },
				"south": { "uv": [ 2, 6, 5, 7 ], "texture": "#jade" },
				"west": { "uv": [ 14, 6, 15, 7 ], "texture": "#jade" },
				"east": { "uv": [ 1, 6, 2, 7 ], "texture": "#jade" }
			}
		},
		{
			"__comment": "Box28",
			"from": [ 11, 9, 14 ],
			"to": [ 14, 10, 15 ],
			"faces": {
				"down": { "uv": [ 11, 1, 14, 2 ], "texture": "#jade" },
				"up": { "uv": [ 11, 14, 14, 15 ], "texture": "#jade" },
				"north": { "uv": [ 2, 6, 5, 7 ], "texture": "#jade" },
				"south": { "uv": [ 11, 6, 14, 7 ], "texture": "#jade" },
				"west": { "uv": [ 14, 6, 15, 7 ], "texture": "#jade" },
				"east": { "uv": [ 1, 6, 2, 7 ], "texture": "#jade" }
			}
		},
		{
			"__comment": "Box28",
			"from": [ 2, 9, 2 ],
			"to": [ 3, 10, 3 ],
			"faces": {
				"up": { "uv": [ 2, 2, 3, 3 ], "texture": "#jade" },
				"south": { "uv": [ 2, 6, 3, 7 ], "texture": "#jade" },
				"east": { "uv": [ 13, 6, 14, 7 ], "texture": "#jade" }
			}
		},
		{
			"__comment": "Box28",
			"from": [ 13, 9, 2 ],
			"to": [ 14, 10, 3 ],
			"faces": {
				"up": { "uv": [ 13, 2, 14, 3 ], "texture": "#jade" },
				"south": { "uv": [ 13, 6, 14, 7 ], "texture": "#jade" },
				"west": { "uv": [ 2, 6, 3, 7 ], "texture": "#jade" }
			}
		},
		{
			"__comment": "Box28",
			"from": [ 13, 9, 13 ],
			"to": [ 14, 10, 14 ],
			"faces": {
				"up": { "uv": [ 13, 13, 14, 14 ], "texture": "#jade" },
				"north": { "uv": [ 2, 6, 3, 7 ], "texture": "#jade" },
				"west": { "uv": [ 13, 6, 14, 7 ], "texture": "#jade" }
			}
		},
		{
			"__comment": "Box28",
			"from": [ 2, 9, 13 ],
			"to": [ 3, 10, 14 ],
			"faces": {
				"up": { "uv": [ 2, 13, 3, 14 ], "texture": "#jade" },
				"north": { "uv": [ 13, 6, 14, 7 ], "texture": "#jade" },
				"east": { "uv": [ 2, 6, 3, 7 ], "texture": "#jade" }
			}
		},
		{
			"__comment": "Box28",
			"from": [ 1, 10, 1 ],
			"to": [ 3, 11, 2 ],
			"faces": {
				"down": { "uv": [ 1, 14, 3, 15 ], "texture": "#jade" },
				"up": { "uv": [ 1, 1, 3, 2 ], "texture": "#jade" },
				"north": { "uv": [ 13, 5, 15, 6 ], "texture": "#jade" },
				"south": { "uv": [ 1, 5, 3, 6 ], "texture": "#jade" },
				"west": { "uv": [ 1, 5, 2, 6 ], "texture": "#jade" },
				"east": { "uv": [ 14, 5, 15, 6 ], "texture": "#jade" }
			}
		},
		{
			"__comment": "Box28",
			"from": [ 1, 10, 14 ],
			"to": [ 3, 11, 15 ],
			"faces": {
				"down": { "uv": [ 1, 1, 3, 2 ], "texture": "#jade" },
				"up": { "uv": [ 1, 14, 3, 15 ], "texture": "#jade" },
				"north": { "uv": [ 13, 5, 15, 6 ], "texture": "#jade" },
				"south": { "uv": [ 1, 5, 3, 6 ], "texture": "#jade" },
				"west": { "uv": [ 14, 5, 15, 6 ], "texture": "#jade" },
				"east": { "uv": [ 1, 5, 2, 6 ], "texture": "#jade" }
			}
		},
		{
			"__comment": "Box28",
			"from": [ 13, 10, 1 ],
			"to": [ 15, 11, 2 ],
			"faces": {
				"down": { "uv": [ 13, 14, 15, 15 ], "texture": "#jade" },
				"up": { "uv": [ 13, 1, 15, 2 ], "texture": "#jade" },
				"north": { "uv": [ 1, 5, 3, 6 ], "texture": "#jade" },
				"south": { "uv": [ 13, 5, 15, 6 ], "texture": "#jade" },
				"west": { "uv": [ 1, 5, 2, 6 ], "texture": "#jade" },
				"east": { "uv": [ 14, 5, 15, 6 ], "texture": "#jade" }
			}
		},
		{
			"__comment": "Box28",
			"from": [ 13, 10, 14 ],
			"to": [ 15, 11, 15 ],
			"faces": {
				"down": { "uv": [ 13, 1, 15, 2 ], "texture": "#jade" },
				"up": { "uv": [ 13, 14, 15, 15 ], "texture": "#jade" },
				"north": { "uv": [ 1, 5, 3, 6 ], "texture": "#jade" },
				"south": { "uv": [ 13, 5, 15, 6 ], "texture": "#jade" },
				"west": { "uv": [ 14, 5, 15, 6 ], "texture": "#jade" },
				"east": { "uv": [ 1, 5, 2, 6 ], "texture": "#jade" }
			}
		},
		{
			"__comment": "Box28",
			"from": [ 1, 10, 2 ],
			"to": [ 2, 11, 3 ],
			"faces": {
				"up": { "uv": [ 1, 2, 2, 3 ], "texture": "#jade" },
				"south": { "uv": [ 1, 5, 2, 6 ], "texture": "#jade" },
				"west": { "uv": [ 2, 5, 3, 6 ], "texture": "#jade" },
				"east": { "uv": [ 13, 5, 14, 6 ], "texture": "#jade" }
			}
		},
		{
			"__comment": "Box28",
			"from": [ 14, 10, 2 ],
			"to": [ 15, 11, 3 ],
			"faces": {
				"up": { "uv": [ 14, 2, 15, 3 ], "texture": "#jade" },
				"south": { "uv": [ 14, 5, 15, 6 ], "texture": "#jade" },
				"west": { "uv": [ 2, 5, 3, 6 ], "texture": "#jade" },
				"east": { "uv": [ 13, 5, 14, 6 ], "texture": "#jade" }
			}
		},
		{
			"__comment": "Box28",
			"from": [ 1, 10, 13 ],
			"to": [ 2, 11, 14 ],
			"faces": {
				"up": { "uv": [ 1, 13, 2, 14 ], "texture": "#jade" },
				"north": { "uv": [ 14, 5, 15, 6 ], "texture": "#jade" },
				"west": { "uv": [ 13, 5, 14, 6 ], "texture": "#jade" },
				"east": { "uv": [ 2, 5, 3, 6 ], "texture": "#jade" }
			}
		},
		{
			"__comment": "Box28",
			"from": [ 14, 10, 13 ],
			"to": [ 15, 11, 14 ],
			"faces": {
				"up": { "uv": [ 14, 13, 15, 14 ], "texture": "#jade" },
				"north": { "uv": [ 1, 5, 2, 6 ], "texture": "#jade" },
				"west": { "uv": [ 13, 5, 14, 6 ], "texture": "#jade" },
				"east": { "uv": [ 2, 5, 3, 6 ], "texture": "#jade" }
			}
		},
		{
			"__comment": "Box52",
			"from": [ 5, 9, 3 ],
			"to": [ 11, 13, 4 ],
			"faces": {
				"up": { "uv": [ 5, 3, 11, 4 ], "texture": "#jade" },
				"north": { "uv": [ 5, 3, 11, 7 ], "texture": "#jade" },
				"south": { "uv": [ 5, 3, 11, 7 ], "texture": "#jade" },
				"west": { "uv": [ 3, 3, 4, 7 ], "texture": "#jade" },
				"east": { "uv": [ 12, 3, 13, 7 ], "texture": "#jade" }
			}
		},
		{
			"__comment": "Box52",
			"from": [ 5, 9, 12 ],
			"to": [ 11, 13, 13 ],
			"faces": {
				"up": { "uv": [ 5, 12, 11, 13 ], "texture": "#jade" },
				"north": { "uv": [ 5, 3, 11, 7 ], "texture": "#jade" },
				"south": { "uv": [ 5, 3, 11, 7 ], "texture": "#jade" },
				"west": { "uv": [ 12, 3, 13, 7 ], "texture": "#jade" },
				"east": { "uv": [ 3, 3, 4, 7 ], "texture": "#jade" }
			}
		},
		{
			"__comment": "Box52",
			"from": [ 3, 9, 5 ],
			"to": [ 4, 13, 11 ],
			"faces": {
				"up": { "uv": [ 3, 5, 4, 11 ], "texture": "#jade" },
				"north": { "uv": [ 12, 3, 13, 7 ], "texture": "#jade" },
				"south": { "uv": [ 3, 3, 4, 7 ], "texture": "#jade" },
				"west": { "uv": [ 5, 3, 11, 7 ], "texture": "#jade" },
				"east": { "uv": [ 5, 3, 11, 7 ], "texture": "#jade" }
			}
		},
		{
			"__comment": "Box52",
			"from": [ 12, 9, 5 ],
			"to": [ 13, 13, 11 ],
			"faces": {
				"up": { "uv": [ 12, 5, 13, 11 ], "texture": "#jade" },
				"north": { "uv": [ 3, 3, 4, 7 ], "texture": "#jade" },
				"south": { "uv": [ 12, 3, 13, 7 ], "texture": "#jade" },
				"west": { "uv": [ 5, 3, 11, 7 ], "texture": "#jade" },
				"east": { "uv": [ 5, 3, 11, 7 ], "texture": "#jade" }
			}
		},
		{
			"__comment": "Box56",
			"from": [ 7, 9, 6 ],
			"to": [ 9, 10, 7 ],
			"faces": {
				"up": { "uv": [ 7, 6, 9, 7 ], "texture": "#jade" },
				"north": { "uv": [ 7, 6, 9, 7 ], "texture": "#jade" },
				"south": { "uv": [ 7, 6, 9, 7 ], "texture": "#jade" },
				"west": { "uv": [ 6, 6, 7, 7 ], "texture": "#jade" },
				"east": { "uv": [ 9, 6, 10, 7 ], "texture": "#jade" }
			}
		},
		{
			"__comment": "Box52",
			"from": [ 7, 9, 9 ],
			"to": [ 9, 10, 10 ],
			"faces": {
				"up": { "uv": [ 7, 9, 9, 10 ], "texture": "#jade" },
				"north": { "uv": [ 7, 6, 9, 7 ], "texture": "#jade" },
				"south": { "uv": [ 7, 6, 9, 7 ], "texture": "#jade" },
				"west": { "uv": [ 9, 6, 10, 7 ], "texture": "#jade" },
				"east": { "uv": [ 6, 6, 7, 7 ], "texture": "#jade" }
			}
		},
		{
			"__comment": "Box56",
			"from": [ 6, 9, 7 ],
			"to": [ 7, 10, 9 ],
			"faces": {
				"up": { "uv": [ 6, 7, 7, 9 ], "texture": "#jade" },
				"north": { "uv": [ 9, 6, 10, 7 ], "texture": "#jade" },
				"south": { "uv": [ 6, 6, 7, 7 ], "texture": "#jade" },
				"west": { "uv": [ 7, 6, 9, 7 ], "texture": "#jade" },
				"east": { "uv": [ 7, 6, 9, 7 ], "texture": "#jade" }
			}
		},
		{
			"__comment": "Box56",
			"from": [ 9, 9, 7 ],
			"to": [ 10, 10, 9 ],
			"faces": {
				"up": { "uv": [ 9, 7, 10, 9 ], "texture": "#jade" },
				"north": { "uv": [ 6, 6, 7, 7 ], "texture": "#jade" },
				"south": { "uv": [ 9, 6, 10, 7 ], "texture": "#jade" },
				"west": { "uv": [ 7, 6, 9, 7 ], "texture": "#jade" },
				"east": { "uv": [ 7, 6, 9, 7 ], "texture": "#jade" }
			}
		},
		{
			"__comment": "Box56",
			"from": [ 7, 10, 5 ],
			"to": [ 9, 11, 6 ],
			"faces": {
				"down": { "uv": [ 7, 10, 9, 11 ], "texture": "#jade" },
				"up": { "uv": [ 7, 5, 9, 6 ], "texture": "#jade" },
				"north": { "uv": [ 7, 5, 9, 6 ], "texture": "#jade" },
				"south": { "uv": [ 7, 5, 9, 6 ], "texture": "#jade" },
				"west": { "uv": [ 5, 5, 6, 6 ], "texture": "#jade" },
				"east": { "uv": [ 10, 5, 11, 6 ], "texture": "#jade" }
			}
		},
		{
			"__comment": "Box56",
			"from": [ 7, 10, 10 ],
			"to": [ 9, 11, 11 ],
			"faces": {
				"down": { "uv": [ 7, 5, 9, 6 ], "texture": "#jade" },
				"up": { "uv": [ 7, 10, 9, 11 ], "texture": "#jade" },
				"north": { "uv": [ 7, 5, 9, 6 ], "texture": "#jade" },
				"south": { "uv": [ 7, 5, 9, 6 ], "texture": "#jade" },
				"west": { "uv": [ 10, 5, 11, 6 ], "texture": "#jade" },
				"east": { "uv": [ 5, 5, 6, 6 ], "texture": "#jade" }
			}
		},
		{
			"__comment": "Box56",
			"from": [ 5, 10, 7 ],
			"to": [ 6, 11, 9 ],
			"faces": {
				"down": { "uv": [ 5, 7, 6, 9 ], "texture": "#jade" },
				"up": { "uv": [ 5, 7, 6, 9 ], "texture": "#jade" },
				"north": { "uv": [ 10, 5, 11, 6 ], "texture": "#jade" },
				"south": { "uv": [ 5, 5, 6, 6 ], "texture": "#jade" },
				"west": { "uv": [ 7, 5, 9, 6 ], "texture": "#jade" },
				"east": { "uv": [ 7, 5, 9, 6 ], "texture": "#jade" }
			}
		},
		{
			"__comment": "Box56",
			"from": [ 10, 10, 7 ],
			"to": [ 11, 11, 9 ],
			"faces": {
				"down": { "uv": [ 10, 7, 11, 9 ], "texture": "#jade" },
				"up": { "uv": [ 10, 7, 11, 9 ], "texture": "#jade" },
				"north": { "uv": [ 5, 5, 6, 6 ], "texture": "#jade" },
				"south": { "uv": [ 10, 5, 11, 6 ], "texture": "#jade" },
				"west": { "uv": [ 7, 5, 9, 6 ], "texture": "#jade" },
				"east": { "uv": [ 7, 5, 9, 6 ], "texture": "#jade" }
			}
		},
		{
			"__comment": "Box56",
			"from": [ 9, 10, 6 ],
			"to": [ 10, 11, 7 ],
			"faces": {
				"down": { "uv": [ 9, 9, 10, 10 ], "texture": "#jade" },
				"up": { "uv": [ 9, 6, 10, 7 ], "texture": "#jade" },
				"north": { "uv": [ 6, 5, 7, 6 ], "texture": "#jade" },
				"south": { "uv": [ 9, 5, 10, 6 ], "texture": "#jade" },
				"west": { "uv": [ 6, 5, 7, 6 ], "texture": "#jade" },
				"east": { "uv": [ 9, 5, 10, 6 ], "texture": "#jade" }
			}
		},
		{
			"__comment": "Box56",
			"from": [ 6, 10, 9 ],
			"to": [ 7, 11, 10 ],
			"faces": {
				"down": { "uv": [ 6, 6, 7, 7 ], "texture": "#jade" },
				"up": { "uv": [ 6, 9, 7, 10 ], "texture": "#jade" },
				"north": { "uv": [ 9, 5, 10, 6 ], "texture": "#jade" },
				"south": { "uv": [ 6, 5, 7, 6 ], "texture": "#jade" },
				"west": { "uv": [ 9, 5, 10, 6 ], "texture": "#jade" },
				"east": { "uv": [ 6, 5, 7, 6 ], "texture": "#jade" }
			}
		},
		{
			"__comment": "Box56",
			"from": [ 6, 10, 6 ],
			"to": [ 7, 11, 7 ],
			"faces": {
				"down": { "uv": [ 6, 9, 7, 10 ], "texture": "#jade" },
				"up": { "uv": [ 6, 6, 7, 7 ], "texture": "#jade" },
				"north": { "uv": [ 9, 5, 10, 6 ], "texture": "#jade" },
				"south": { "uv": [ 6, 5, 7, 6 ], "texture": "#jade" },
				"west": { "uv": [ 6, 5, 7, 6 ], "texture": "#jade" },
				"east": { "uv": [ 9, 5, 10, 6 ], "texture": "#jade" }
			}
		},
		{
			"__comment": "Box56",
			"from": [ 9, 10, 9 ],
			"to": [ 10, 11, 10 ],
			"faces": {
				"down": { "uv": [ 9, 6, 10, 7 ], "texture": "#jade" },
				"up": { "uv": [ 9, 9, 10, 10 ], "texture": "#jade" },
				"north": { "uv": [ 6, 5, 7, 6 ], "texture": "#jade" },
				"south": { "uv": [ 9, 5, 10, 6 ], "texture": "#jade" },
				"west": { "uv": [ 9, 5, 10, 6 ], "texture": "#jade" },
				"east": { "uv": [ 6, 5, 7, 6 ], "texture": "#jade" }
			}
		},
		{
			"__comment": "Box56",
			"from": [ 7, 11, 4 ],
			"to": [ 9, 12, 5 ],
			"faces": {
				"down": { "uv": [ 7, 11, 9, 12 ], "texture": "#jade" },
				"up": { "uv": [ 7, 4, 9, 5 ], "texture": "#jade" },
				"south": { "uv": [ 7, 4, 9, 5 ], "texture": "#jade" }
			}
		},
		{
			"__comment": "Box56",
			"from": [ 5, 11, 5 ],
			"to": [ 7, 12, 6 ],
			"faces": {
				"down": { "uv": [ 5, 10, 7, 11 ], "texture": "#jade" },
				"up": { "uv": [ 5, 5, 7, 6 ], "texture": "#jade" },
				"south": { "uv": [ 5, 4, 7, 5 ], "texture": "#jade" },
				"east": { "uv": [ 10, 4, 11, 5 ], "texture": "#jade" }
			}
		},
		{
			"__comment": "Box56",
			"from": [ 9, 11, 5 ],
			"to": [ 11, 12, 6 ],
			"faces": {
				"down": { "uv": [ 9, 10, 11, 11 ], "texture": "#jade" },
				"up": { "uv": [ 9, 5, 11, 6 ], "texture": "#jade" },
				"south": { "uv": [ 9, 4, 11, 5 ], "texture": "#jade" },
				"west": { "uv": [ 5, 4, 6, 5 ], "texture": "#jade" }
			}
		},
		{
			"__comment": "Box56",
			"from": [ 5, 11, 10 ],
			"to": [ 7, 12, 11 ],
			"faces": {
				"down": { "uv": [ 5, 5, 7, 6 ], "texture": "#jade" },
				"up": { "uv": [ 5, 10, 7, 11 ], "texture": "#jade" },
				"north": { "uv": [ 9, 4, 11, 5 ], "texture": "#jade" },
				"east": { "uv": [ 5, 4, 6, 5 ], "texture": "#jade" }
			}
		},
		{
			"__comment": "Box56",
			"from": [ 7, 11, 11 ],
			"to": [ 9, 12, 12 ],
			"faces": {
				"down": { "uv": [ 7, 4, 9, 5 ], "texture": "#jade" },
				"up": { "uv": [ 7, 11, 9, 12 ], "texture": "#jade" },
				"north": { "uv": [ 7, 4, 9, 5 ], "texture": "#jade" }
			}
		},
		{
			"__comment": "Box56",
			"from": [ 9, 11, 10 ],
			"to": [ 11, 12, 11 ],
			"faces": {
				"down": { "uv": [ 9, 5, 11, 6 ], "texture": "#jade" },
				"up": { "uv": [ 9, 10, 11, 11 ], "texture": "#jade" },
				"north": { "uv": [ 5, 4, 7, 5 ], "texture": "#jade" },
				"west": { "uv": [ 10, 4, 11, 5 ], "texture": "#jade" }
			}
		},
		{
			"__comment": "Box56",
			"from": [ 4, 11, 7 ],
			"to": [ 5, 12, 9 ],
			"faces": {
				"down": { "uv": [ 4, 7, 5, 9 ], "texture": "#jade" },
				"up": { "uv": [ 4, 7, 5, 9 ], "texture": "#jade" },
				"east": { "uv": [ 7, 4, 9, 5 ], "texture": "#jade" }
			}
		},
		{
			"__comment": "Box56",
			"from": [ 11, 11, 7 ],
			"to": [ 12, 12, 9 ],
			"faces": {
				"down": { "uv": [ 11, 7, 12, 9 ], "texture": "#jade" },
				"up": { "uv": [ 11, 7, 12, 9 ], "texture": "#jade" },
				"west": { "uv": [ 7, 4, 9, 5 ], "texture": "#jade" }
			}
		},
		{
			"__comment": "Box56",
			"from": [ 5, 11, 6 ],
			"to": [ 6, 12, 7 ],
			"faces": {
				"down": { "uv": [ 5, 9, 6, 10 ], "texture": "#jade" },
				"up": { "uv": [ 5, 6, 6, 7 ], "texture": "#jade" },
				"south": { "uv": [ 5, 4, 6, 5 ], "texture": "#jade" },
				"east": { "uv": [ 9, 4, 10, 5 ], "texture": "#jade" }
			}
		},
		{
			"__comment": "Box56",
			"from": [ 10, 11, 6 ],
			"to": [ 11, 12, 7 ],
			"faces": {
				"down": { "uv": [ 10, 9, 11, 10 ], "texture": "#jade" },
				"up": { "uv": [ 10, 6, 11, 7 ], "texture": "#jade" },
				"south": { "uv": [ 10, 4, 11, 5 ], "texture": "#jade" },
				"west": { "uv": [ 6, 4, 7, 5 ], "texture": "#jade" }
			}
		},
		{
			"__comment": "Box56",
			"from": [ 5, 11, 9 ],
			"to": [ 6, 12, 10 ],
			"faces": {
				"down": { "uv": [ 5, 6, 6, 7 ], "texture": "#jade" },
				"up": { "uv": [ 5, 9, 6, 10 ], "texture": "#jade" },
				"north": { "uv": [ 10, 4, 11, 5 ], "texture": "#jade" },
				"east": { "uv": [ 6, 4, 7, 5 ], "texture": "#jade" }
			}
		},
		{
			"__comment": "Box56",
			"from": [ 10, 11, 9 ],
			"to": [ 11, 12, 10 ],
			"faces": {
				"down": { "uv": [ 10, 6, 11, 7 ], "texture": "#jade" },
				"up": { "uv": [ 10, 9, 11, 10 ], "texture": "#jade" },
				"north": { "uv": [ 5, 4, 6, 5 ], "texture": "#jade" },
				"west": { "uv": [ 9, 4, 10, 5 ], "texture": "#jade" }
			}
		},
		{
			"__comment": "Box80",
			"from": [ 4, 9, 4 ],
			"to": [ 5, 15, 7 ],
			"faces": {
				"up": { "uv": [ 4, 4, 5, 7 ], "texture": "#jade" },
				"north": { "uv": [ 11, 1, 12, 7 ], "texture": "#jade" },
				"south": { "uv": [ 4, 1, 5, 7 ], "texture": "#jade" },
				"west": { "uv": [ 4, 1, 7, 7 ], "texture": "#jade" },
				"east": { "uv": [ 9, 1, 12, 7 ], "texture": "#jade" }
			}
		},
		{
			"__comment": "Box80",
			"from": [ 11, 9, 4 ],
			"to": [ 12, 15, 7 ],
			"faces": {
				"up": { "uv": [ 11, 4, 12, 7 ], "texture": "#jade" },
				"north": { "uv": [ 4, 1, 5, 7 ], "texture": "#jade" },
				"south": { "uv": [ 11, 1, 12, 7 ], "texture": "#jade" },
				"west": { "uv": [ 4, 1, 7, 7 ], "texture": "#jade" },
				"east": { "uv": [ 9, 1, 12, 7 ], "texture": "#jade" }
			}
		},
		{
			"__comment": "Box80",
			"from": [ 4, 9, 9 ],
			"to": [ 5, 15, 12 ],
			"faces": {
				"up": { "uv": [ 4, 9, 5, 12 ], "texture": "#jade" },
				"north": { "uv": [ 11, 1, 12, 7 ], "texture": "#jade" },
				"south": { "uv": [ 4, 1, 5, 7 ], "texture": "#jade" },
				"west": { "uv": [ 9, 1, 12, 7 ], "texture": "#jade" },
				"east": { "uv": [ 4, 1, 7, 7 ], "texture": "#jade" }
			}
		},
		{
			"__comment": "Box80",
			"from": [ 11, 9, 9 ],
			"to": [ 12, 15, 12 ],
			"faces": {
				"up": { "uv": [ 11, 9, 12, 12 ], "texture": "#jade" },
				"north": { "uv": [ 4, 1, 5, 7 ], "texture": "#jade" },
				"south": { "uv": [ 11, 1, 12, 7 ], "texture": "#jade" },
				"west": { "uv": [ 9, 1, 12, 7 ], "texture": "#jade" },
				"east": { "uv": [ 4, 1, 7, 7 ], "texture": "#jade" }
			}
		},
		{
			"__comment": "Box80",
			"from": [ 5, 9, 4 ],
			"to": [ 7, 15, 5 ],
			"faces": {
				"up": { "uv": [ 5, 4, 7, 5 ], "texture": "#jade" },
				"north": { "uv": [ 9, 1, 11, 7 ], "texture": "#jade" },
				"south": { "uv": [ 5, 1, 7, 7 ], "texture": "#jade" },
				"east": { "uv": [ 11, 1, 12, 7 ], "texture": "#jade" }
			}
		},
		{
			"__comment": "Box80",
			"from": [ 9, 9, 4 ],
			"to": [ 11, 15, 5 ],
			"faces": {
				"up": { "uv": [ 9, 4, 11, 5 ], "texture": "#jade" },
				"north": { "uv": [ 5, 1, 7, 7 ], "texture": "#jade" },
				"south": { "uv": [ 9, 1, 11, 7 ], "texture": "#jade" },
				"west": { "uv": [ 4, 1, 5, 7 ], "texture": "#jade" }
			}
		},
		{
			"__comment": "Box80",
			"from": [ 5, 9, 11 ],
			"to": [ 7, 15, 12 ],
			"faces": {
				"up": { "uv": [ 5, 11, 7, 12 ], "texture": "#jade" },
				"north": { "uv": [ 9, 1, 11, 7 ], "texture": "#jade" },
				"south": { "uv": [ 5, 1, 7, 7 ], "texture": "#jade" },
				"east": { "uv": [ 4, 1, 5, 7 ], "texture": "#jade" }
			}
		},
		{
			"__comment": "Box80",
			"from": [ 9, 9, 11 ],
			"to": [ 11, 15, 12 ],
			"faces": {
				"up": { "uv": [ 9, 11, 11, 12 ], "texture": "#jade" },
				"north": { "uv": [ 5, 1, 7, 7 ], "texture": "#jade" },
				"south": { "uv": [ 9, 1, 11, 7 ], "texture": "#jade" },
				"west": { "uv": [ 11, 1, 12, 7 ], "texture": "#jade" }
			}
		},
		{
			"__comment": "Box88",
			"from": [ 6, 13, 3 ],
			"to": [ 10, 14, 4 ],
			"faces": {
				"up": { "uv": [ 6, 3, 10, 4 ], "texture": "#jade" },
				"north": { "uv": [ 6, 2, 10, 3 ], "texture": "#jade" },
				"south": { "uv": [ 6, 2, 10, 3 ], "texture": "#jade" },
				"west": { "uv": [ 3, 2, 4, 3 ], "texture": "#jade" },
				"east": { "uv": [ 12, 2, 13, 3 ], "texture": "#jade" }
			}
		},
		{
			"__comment": "Box88",
			"from": [ 6, 13, 12 ],
			"to": [ 10, 14, 13 ],
			"faces": {
				"up": { "uv": [ 6, 12, 10, 13 ], "texture": "#jade" },
				"north": { "uv": [ 6, 2, 10, 3 ], "texture": "#jade" },
				"south": { "uv": [ 6, 2, 10, 3 ], "texture": "#jade" },
				"west": { "uv": [ 12, 2, 13, 3 ], "texture": "#jade" },
				"east": { "uv": [ 3, 2, 4, 3 ], "texture": "#jade" }
			}
		},
		{
			"__comment": "Box88",
			"from": [ 3, 13, 6 ],
			"to": [ 4, 14, 10 ],
			"faces": {
				"up": { "uv": [ 3, 6, 4, 10 ], "texture": "#jade" },
				"north": { "uv": [ 12, 2, 13, 3 ], "texture": "#jade" },
				"south": { "uv": [ 3, 2, 4, 3 ], "texture": "#jade" },
				"west": { "uv": [ 6, 2, 10, 3 ], "texture": "#jade" },
				"east": { "uv": [ 6, 2, 10, 3 ], "texture": "#jade" }
			}
		},
		{
			"__comment": "Box88",
			"from": [ 12, 13, 6 ],
			"to": [ 13, 14, 10 ],
			"faces": {
				"up": { "uv": [ 12, 6, 13, 10 ], "texture": "#jade" },
				"north": { "uv": [ 3, 2, 4, 3 ], "texture": "#jade" },
				"south": { "uv": [ 12, 2, 13, 3 ], "texture": "#jade" },
				"west": { "uv": [ 6, 2, 10, 3 ], "texture": "#jade" },
				"east": { "uv": [ 6, 2, 10, 3 ], "texture": "#jade" }
			}
		},
		{
			"__comment": "Box92",
			"from": [ 6, 14, 3 ],
			"to": [ 7, 15, 4 ],
			"faces": {
				"up": { "uv": [ 6, 3, 7, 4 ], "texture": "#jade" },
				"north": { "uv": [ 9, 1, 10, 2 ], "texture": "#jade" },
				"west": { "uv": [ 3, 1, 4, 2 ], "texture": "#jade" },
				"east": { "uv": [ 12, 1, 13, 2 ], "texture": "#jade" }
			}
		},
		{
			"__comment": "Box92",
			"from": [ 9, 14, 3 ],
			"to": [ 10, 15, 4 ],
			"faces": {
				"up": { "uv": [ 9, 3, 10, 4 ], "texture": "#jade" },
				"north": { "uv": [ 6, 1, 7, 2 ], "texture": "#jade" },
				"west": { "uv": [ 3, 1, 4, 2 ], "texture": "#jade" },
				"east": { "uv": [ 12, 1, 13, 2 ], "texture": "#jade" }
			}
		},
		{
			"__comment": "Box92",
			"from": [ 3, 14, 6 ],
			"to": [ 4, 15, 7 ],
			"faces": {
				"up": { "uv": [ 3, 6, 4, 7 ], "texture": "#jade" },
				"north": { "uv": [ 12, 1, 13, 2 ], "texture": "#jade" },
				"south": { "uv": [ 3, 1, 4, 2 ], "texture": "#jade" },
				"west": { "uv": [ 6, 1, 7, 2 ], "texture": "#jade" }
			}
		},
		{
			"__comment": "Box92",
			"from": [ 3, 14, 9 ],
			"to": [ 4, 15, 10 ],
			"faces": {
				"up": { "uv": [ 3, 9, 4, 10 ], "texture": "#jade" },
				"north": { "uv": [ 12, 1, 13, 2 ], "texture": "#jade" },
				"south": { "uv": [ 3, 1, 4, 2 ], "texture": "#jade" },
				"west": { "uv": [ 9, 1, 10, 2 ], "texture": "#jade" }
			}
		},
		{
			"__comment": "Box92",
			"from": [ 12, 14, 6 ],
			"to": [ 13, 15, 7 ],
			"faces": {
				"up": { "uv": [ 12, 6, 13, 7 ], "texture": "#jade" },
				"north": { "uv": [ 3, 1, 4, 2 ], "texture": "#jade" },
				"south": { "uv": [ 12, 1, 13, 2 ], "texture": "#jade" },
				"east": { "uv": [ 9, 1, 10, 2 ], "texture": "#jade" }
			}
		},
		{
			"__comment": "Box92",
			"from": [ 12, 14, 9 ],
			"to": [ 13, 15, 10 ],
			"faces": {
				"up": { "uv": [ 12, 9, 13, 10 ], "texture": "#jade" },
				"north": { "uv": [ 3, 1, 4, 2 ], "texture": "#jade" },
				"south": { "uv": [ 12, 1, 13, 2 ], "texture": "#jade" },
				"east": { "uv": [ 6, 1, 7, 2 ], "texture": "#jade" }
			}
		},
		{
			"__comment": "Box92",
			"from": [ 9, 14, 12 ],
			"to": [ 10, 15, 13 ],
			"faces": {
				"up": { "uv": [ 9, 12, 10, 13 ], "texture": "#jade" },
				"south": { "uv": [ 9, 1, 10, 2 ], "texture": "#jade" },
				"west": { "uv": [ 12, 1, 13, 2 ], "texture": "#jade" },
				"east": { "uv": [ 3, 1, 4, 2 ], "texture": "#jade" }
			}
		},
		{
			"__comment": "Box92",
			"from": [ 6, 14, 12 ],
			"to": [ 7, 15, 13 ],
			"faces": {
				"up": { "uv": [ 6, 12, 7, 13 ], "texture": "#jade" },
				"south": { "uv": [ 6, 1, 7, 2 ], "texture": "#jade" },
				"west": { "uv": [ 12, 1, 13, 2 ], "texture": "#jade" },
				"east": { "uv": [ 3, 1, 4, 2 ], "texture": "#jade" }
			}
		},
		{
			"__comment": "Box100",
			"from": [ 6, 13, 6 ],
			"to": [ 10, 15, 10 ],
			"faces": {
				"down": { "uv": [ 6, 6, 10, 10 ], "texture": "#heart_red" },
				"up": { "uv": [ 6, 6, 10, 10 ], "texture": "#heart_red" },
				"north": { "uv": [ 6, 1, 10, 3 ], "texture": "#heart_red" },
				"south": { "uv": [ 6, 1, 10, 3 ], "texture": "#heart_red" },
				"west": { "uv": [ 6, 1, 10, 3 ], "texture": "#heart_red" },
				"east": { "uv": [ 6, 1, 10, 3 ], "texture": "#heart_red" }
			}
		},
		{
			"__comment": "Box101",
			"from": [ 6, 15, 7 ],
			"to": [ 9, 16, 10 ],
			"faces": {
				"down": { "uv": [ 6, 6.000015, 9, 9.000015 ], "texture": "#heart_red" },
				"up": { "uv": [ 6, 6.999985, 9, 9.999985 ], "texture": "#heart_red" },
				"north": { "uv": [ 7, 0, 10, 1 ], "texture": "#heart_red" },
				"south": { "uv": [ 6, 0, 9, 1 ], "texture": "#heart_red" },
				"west": { "uv": [ 6.999985, 0, 9.999985, 1 ], "texture": "#heart_red" },
				"east": { "uv": [ 6.000015, 0, 9.000015, 1 ], "texture": "#heart_red" }
			}
		},
		{
			"__comment": "Box101",
			"from": [ 7, 15, 6 ],
			"to": [ 9, 16, 7 ],
			"faces": {
				"down": { "uv": [ 6.999996, 9.000015, 8.999996, 10.00002 ], "texture": "#heart_red" },
				"up": { "uv": [ 6.999996, 5.999985, 8.999996, 6.999985 ], "texture": "#heart_red" },
				"north": { "uv": [ 7.000004, 0, 9.000004, 1 ], "texture": "#heart_red" },
				"south": { "uv": [ 6.999996, 0, 8.999996, 1 ], "texture": "#heart_red" },
				"west": { "uv": [ 5.999985, 0, 6.999985, 1 ], "texture": "#heart_red" },
				"east": { "uv": [ 9.000015, 0, 10.00002, 1 ], "texture": "#heart_red" }
			}
		},
		{
			"__comment": "Box101",
			"from": [ 9, 15, 7 ],
			"to": [ 10, 16, 9 ],
			"faces": {
				"down": { "uv": [ 9, 7, 10, 9 ], "texture": "#heart_red" },
				"up": { "uv": [ 9, 7, 10, 9 ], "texture": "#heart_red" },
				"north": { "uv": [ 6, 0, 7, 1 ], "texture": "#heart_red" },
				"south": { "uv": [ 9, 0, 10, 1 ], "texture": "#heart_red" },
				"west": { "uv": [ 7, 0, 9, 1 ], "texture": "#heart_red" },
				"east": { "uv": [ 7, 0, 9, 1 ], "texture": "#heart_red" }
			}
		},
		{
			"__comment": "Box101",
			"from": [ 7, 16, 8 ],
			"to": [ 8, 17, 9 ],
			"faces": {
				"down": { "uv": [ 8, 8, 9, 9 ], "texture": "#heart_red" },
				"up": { "uv": [ 8, 7, 9, 8 ], "texture": "#heart_red" },
				"north": { "uv": [ 7, 15, 8, 16 ], "texture": "#heart_red" },
				"south": { "uv": [ 8, 15, 9, 16 ], "texture": "#heart_red" },
				"west": { "uv": [ 7, 15, 8, 16 ], "texture": "#heart_red" },
				"east": { "uv": [ 8, 15, 9, 16 ], "texture": "#heart_red" }
			}
		},
		{
			"__comment": "Box101",
			"from": [ 8, 16, 7 ],
			"to": [ 9, 17, 8 ],
			"faces": {
				"down": { "uv": [ 8, 8, 9, 9 ], "texture": "#heart_red" },
				"up": { "uv": [ 8, 7, 9, 8 ], "texture": "#heart_red" },
				"north": { "uv": [ 7, 15, 8, 16 ], "texture": "#heart_red" },
				"south": { "uv": [ 8, 15, 9, 16 ], "texture": "#heart_red" },
				"west": { "uv": [ 7, 15, 8, 16 ], "texture": "#heart_red" },
				"east": { "uv": [ 8, 15, 9, 16 ], "texture": "#heart_red" }
			}
		},
		{
			"__comment": "Box100",
			"from": [ 6, 12, 6 ],
			"to": [ 9, 13, 9 ],
			"faces": {
				"down": { "uv": [ 6, 7, 9, 10 ], "texture": "#heart_red" },
				"up": { "uv": [ 6, 6, 9, 9 ], "texture": "#heart_red" },
				"north": { "uv": [ 7, 3, 10, 4 ], "texture": "#heart_red" },
				"south": { "uv": [ 6, 3, 9, 4 ], "texture": "#heart_red" },
				"west": { "uv": [ 6, 3, 9, 4 ], "texture": "#heart_red" },
				"east": { "uv": [ 7, 3, 10, 4 ], "texture": "#heart_red" }
			}
		},
		{
			"__comment": "Box100",
			"from": [ 6, 12, 9 ],
			"to": [ 9, 13, 10 ],
			"faces": {
				"down": { "uv": [ 6, 6, 9, 7 ], "texture": "#heart_red" },
				"up": { "uv": [ 6, 9, 9, 10 ], "texture": "#heart_red" },
				"north": { "uv": [ 7, 3, 10, 4 ], "texture": "#heart_red" },
				"south": { "uv": [ 6, 3, 9, 4 ], "texture": "#heart_red" },
				"west": { "uv": [ 9, 3, 10, 4 ], "texture": "#heart_red" },
				"east": { "uv": [ 6, 3, 7, 4 ], "texture": "#heart_red" }
			}
		},
		{
			"__comment": "Box100",
			"from": [ 9, 12, 6 ],
			"to": [ 10, 13, 9 ],
			"faces": {
				"down": { "uv": [ 9, 7, 10, 10 ], "texture": "#heart_red" },
				"up": { "uv": [ 9, 6, 10, 9 ], "texture": "#heart_red" },
				"north": { "uv": [ 6, 3, 7, 4 ], "texture": "#heart_red" },
				"south": { "uv": [ 9, 3, 10, 4 ], "texture": "#heart_red" },
				"west": { "uv": [ 6, 3, 9, 4 ], "texture": "#heart_red" },
				"east": { "uv": [ 7, 3, 10, 4 ], "texture": "#heart_red" }
			}
		},
		{
			"__comment": "Box109",
			"from": [ 7, 11, 6 ],
			"to": [ 9, 12, 9 ],
			"faces": {
				"down": { "uv": [ 7, 7, 9, 10 ], "texture": "#heart_red" },
				"up": { "uv": [ 7, 6, 9, 9 ], "texture": "#heart_red" },
				"north": { "uv": [ 7, 4, 9, 5 ], "texture": "#heart_red" },
				"south": { "uv": [ 7, 4, 9, 5 ], "texture": "#heart_red" },
				"west": { "uv": [ 6, 4, 9, 5 ], "texture": "#heart_red" },
				"east": { "uv": [ 7, 4, 10, 5 ], "texture": "#heart_red" }
			}
		},
		{
			"__comment": "Box109",
			"from": [ 7, 11, 9 ],
			"to": [ 8, 12, 10 ],
			"faces": {
				"down": { "uv": [ 9, 7, 10, 9 ], "texture": "#heart_red" },
				"up": { "uv": [ 9, 7, 10, 9 ], "texture": "#heart_red" },
				"north": { "uv": [ 6, 4, 7, 5 ], "texture": "#heart_red" },
				"south": { "uv": [ 9, 4, 10, 5 ], "texture": "#heart_red" },
				"west": { "uv": [ 7, 4, 9, 5 ], "texture": "#heart_red" },
				"east": { "uv": [ 7, 4, 9, 5 ], "texture": "#heart_red" }
			}
		},
		{
			"__comment": "Box109",
			"from": [ 9, 11, 7 ],
			"to": [ 10, 12, 9 ],
			"faces": {
				"down": { "uv": [ 9, 7, 10, 9 ], "texture": "#heart_red" },
				"up": { "uv": [ 9, 7, 10, 9 ], "texture": "#heart_red" },
				"north": { "uv": [ 6, 4, 7, 5 ], "texture": "#heart_red" },
				"south": { "uv": [ 9, 4, 10, 5 ], "texture": "#heart_red" },
				"west": { "uv": [ 7, 4, 9, 5 ], "texture": "#heart_red" },
				"east": { "uv": [ 7, 4, 9, 5 ], "texture": "#heart_red" }
			}
		},
		{
			"__comment": "Box109",
			"from": [ 8, 10, 8 ],
			"to": [ 9, 11, 9 ],
			"faces": {
				"down": { "uv": [ 8, 7, 9, 8 ], "texture": "#heart_red" },
				"up": { "uv": [ 8, 8, 9, 9 ], "texture": "#heart_red" },
				"north": { "uv": [ 7, 5, 8, 6 ], "texture": "#heart_red" },
				"south": { "uv": [ 8, 5, 9, 6 ], "texture": "#heart_red" },
				"west": { "uv": [ 8, 5, 9, 6 ], "texture": "#heart_red" },
				"east": { "uv": [ 7, 5, 8, 6 ], "texture": "#heart_red" }
			}
		},
		{
			"__comment": "PlaneY113",
			"from": [ 5, 12, 5 ],
			"to": [ 11, 12.001, 11 ],
			"faces": {
				"down": { "uv": [ 5, 5, 11, 11 ], "texture": "#blood" },
				"up": { "uv": [ 5, 5, 11, 11 ], "texture": "#blood" }
			}
		},
		{
			"__comment": "Box100",
			"from": [ 5, 14, 5 ],
			"to": [ 11, 14.5, 11 ],
			"faces": {
				"down": { "uv": [ 5, 5, 11, 11 ], "texture": "#stone" },
				"up": { "uv": [ 5, 5, 11, 11 ], "texture": "#stone" },
				"north": { "uv": [ 5, 1.5, 11, 2 ], "texture": "#stone" },
				"south": { "uv": [ 5, 1.5, 11, 2 ], "texture": "#stone" },
				"west": { "uv": [ 5, 1.5, 11, 2 ], "texture": "#stone" },
				"east": { "uv": [ 5, 1.5, 11, 2 ], "texture": "#stone" }
			}
		},
		{
			"__comment": "Box100",
			"from": [ 7, 14, 2.5 ],
			"to": [ 9, 14.5, 5 ],
			"faces": {
				"down": { "uv": [ 7, 11, 9, 13.5 ], "texture": "#stone" },
				"up": { "uv": [ 7, 2.5, 9, 5 ], "texture": "#stone" },
				"north": { "uv": [ 7, 1.5, 9, 2 ], "texture": "#stone" },
				"south": { "uv": [ 7, 1.5, 9, 2 ], "texture": "#stone" },
				"west": { "uv": [ 2.5, 1.5, 5, 2 ], "texture": "#stone" },
				"east": { "uv": [ 11, 1.5, 13.5, 2 ], "texture": "#stone" }
			}
		},
		{
			"__comment": "Box100",
			"from": [ 7, 14, 11 ],
			"to": [ 9, 14.5, 13.5 ],
			"faces": {
				"down": { "uv": [ 7, 2.5, 9, 5 ], "texture": "#stone" },
				"up": { "uv": [ 7, 11, 9, 13.5 ], "texture": "#stone" },
				"north": { "uv": [ 7, 1.5, 9, 2 ], "texture": "#stone" },
				"south": { "uv": [ 7, 1.5, 9, 2 ], "texture": "#stone" },
				"west": { "uv": [ 11, 1.5, 13.5, 2 ], "texture": "#stone" },
				"east": { "uv": [ 2.5, 1.5, 5, 2 ], "texture": "#stone" }
			}
		},
		{
			"__comment": "Box100",
			"from": [ 11, 14, 7 ],
			"to": [ 13.5, 14.5, 9 ],
			"faces": {
				"down": { "uv": [ 11, 7, 13.5, 9 ], "texture": "#stone" },
				"up": { "uv": [ 11, 7, 13.5, 9 ], "texture": "#stone" },
				"north": { "uv": [ 2.5, 1.5, 5, 2 ], "texture": "#stone" },
				"south": { "uv": [ 11, 1.5, 13.5, 2 ], "texture": "#stone" },
				"west": { "uv": [ 7, 1.5, 9, 2 ], "texture": "#stone" },
				"east": { "uv": [ 7, 1.5, 9, 2 ], "texture": "#stone" }
			}
		},
		{
			"__comment": "Box100",
			"from": [ 2.5, 14, 7 ],
			"to": [ 5, 14.5, 9 ],
			"faces": {
				"down": { "uv": [ 2.5, 7, 5, 9 ], "texture": "#stone" },
				"up": { "uv": [ 2.5, 7, 5, 9 ], "texture": "#stone" },
				"north": { "uv": [ 11, 1.5, 13.5, 2 ], "texture": "#stone" },
				"south": { "uv": [ 2.5, 1.5, 5, 2 ], "texture": "#stone" },
				"west": { "uv": [ 7, 1.5, 9, 2 ], "texture": "#stone" },
				"east": { "uv": [ 7, 1.5, 9, 2 ], "texture": "#stone" }
			}
		},
		{
			"__comment": "Box100",
			"from": [ 7, 10.5, 2.5 ],
			"to": [ 9, 14, 3 ],
			"faces": {
				"down": { "uv": [ 7, 13, 9, 13.5 ], "texture": "#stone" },
				"up": { "uv": [ 7, 2.5, 9, 3 ], "texture": "#stone" },
				"north": { "uv": [ 7, 2, 9, 5.5 ], "texture": "#stone" },
				"south": { "uv": [ 7, 2, 9, 5.5 ], "texture": "#stone" },
				"west": { "uv": [ 2.5, 2, 3, 5.5 ], "texture": "#stone" },
				"east": { "uv": [ 13, 2, 13.5, 5.5 ], "texture": "#stone" }
			}
		},
		{
			"__comment": "Box100",
			"from": [ 7, 10.5, 13 ],
			"to": [ 9, 14, 13.5 ],
			"faces": {
				"down": { "uv": [ 7, 2.5, 9, 3 ], "texture": "#stone" },
				"up": { "uv": [ 7, 13, 9, 13.5 ], "texture": "#stone" },
				"north": { "uv": [ 7, 2, 9, 5.5 ], "texture": "#stone" },
				"south": { "uv": [ 7, 2, 9, 5.5 ], "texture": "#stone" },
				"west": { "uv": [ 13, 2, 13.5, 5.5 ], "texture": "#stone" },
				"east": { "uv": [ 2.5, 2, 3, 5.5 ], "texture": "#stone" }
			}
		},
		{
			"__comment": "Box100",
			"from": [ 2.5, 10.5, 7 ],
			"to": [ 3, 14, 9 ],
			"faces": {
				"down": { "uv": [ 2.5, 7, 3, 9 ], "texture": "#stone" },
				"up": { "uv": [ 2.5, 7, 3, 9 ], "texture": "#stone" },
				"north": { "uv": [ 13, 2, 13.5, 5.5 ], "texture": "#stone" },
				"south": { "uv": [ 2.5, 2, 3, 5.5 ], "texture": "#stone" },
				"west": { "uv": [ 7, 2, 9, 5.5 ], "texture": "#stone" },
				"east": { "uv": [ 7, 2, 9, 5.5 ], "texture": "#stone" }
			}
		},
		{
			"__comment": "Box100",
			"from": [ 13, 10.5, 7 ],
			"to": [ 13.5, 14, 9 ],
			"faces": {
				"down": { "uv": [ 13, 7, 13.5, 9 ], "texture": "#stone" },
				"up": { "uv": [ 13, 7, 13.5, 9 ], "texture": "#stone" },
				"north": { "uv": [ 2.5, 2, 3, 5.5 ], "texture": "#stone" },
				"south": { "uv": [ 13, 2, 13.5, 5.5 ], "texture": "#stone" },
				"west": { "uv": [ 7, 2, 9, 5.5 ], "texture": "#stone" },
				"east": { "uv": [ 7, 2, 9, 5.5 ], "texture": "#stone" }
			}
		},
		{
			"__comment": "Box100",
			"from": [ 2, 10.5, 2 ],
			"to": [ 14, 10.501, 14 ],
			"faces": {
				"down": { "uv": [ 2, 2, 14, 14 ], "texture": "#stone" },
				"up": { "uv": [ 2, 2, 14, 14 ], "texture": "#stone" },
				"north": { "uv": [ 2, 5.499, 14, 5.5 ], "texture": "#stone" },
				"south": { "uv": [ 2, 5.499, 14, 5.5 ], "texture": "#stone" },
				"west": { "uv": [ 2, 5.499, 14, 5.5 ], "texture": "#stone" },
				"east": { "uv": [ 2, 5.499, 14, 5.5 ], "texture": "#stone" }
			}
		},
		{
			"__comment": "Box100",
			"from": [ 3, 10.5, 1 ],
			"to": [ 13, 10.501, 2 ],
			"faces": {
				"down": { "uv": [ 3, 14, 13, 15 ], "texture": "#stone" },
				"up": { "uv": [ 3, 1, 13, 2 ], "texture": "#stone" },
				"north": { "uv": [ 3, 5.499, 13, 5.5 ], "texture": "#stone" },
				"south": { "uv": [ 3, 5.499, 13, 5.5 ], "texture": "#stone" },
				"west": { "uv": [ 1, 5.499, 2, 5.5 ], "texture": "#stone" },
				"east": { "uv": [ 14, 5.499, 15, 5.5 ], "texture": "#stone" }
			}
		},
		{
			"__comment": "Box100",
			"from": [ 3, 10.5, 14 ],
			"to": [ 13, 10.501, 15 ],
			"faces": {
				"down": { "uv": [ 1, 3, 2, 13 ], "texture": "#stone" },
				"up": { "uv": [ 1, 3, 2, 13 ], "texture": "#stone" },
				"north": { "uv": [ 14, 5.499, 15, 5.5 ], "texture": "#stone" },
				"south": { "uv": [ 1, 5.499, 2, 5.5 ], "texture": "#stone" },
				"west": { "uv": [ 3, 5.499, 13, 5.5 ], "texture": "#stone" },
				"east": { "uv": [ 3, 5.499, 13, 5.5 ], "texture": "#stone" }
			}
		},
		{
			"__comment": "Box100",
			"from": [ 1, 10.5, 3 ],
			"to": [ 2, 10.501, 13 ],
			"faces": {
				"down": { "uv": [ 1, 3, 2, 13 ], "texture": "#stone" },
				"up": { "uv": [ 1, 3, 2, 13 ], "texture": "#stone" },
				"north": { "uv": [ 14, 5.499, 15, 5.5 ], "texture": "#stone" },
				"south": { "uv": [ 1, 5.499, 2, 5.5 ], "texture": "#stone" },
				"west": { "uv": [ 3, 5.499, 13, 5.5 ], "texture": "#stone" },
				"east": { "uv": [ 3, 5.499, 13, 5.5 ], "texture": "#stone" }
			}
		},
		{
			"__comment": "Box100",
			"from": [ 14, 10.5, 3 ],
			"to": [ 15, 10.501, 13 ],
			"faces": {
				"down": { "uv": [ 14, 3, 15, 13 ], "texture": "#stone" },
				"up": { "uv": [ 14, 3, 15, 13 ], "texture": "#stone" },
				"north": { "uv": [ 1, 5.499, 2, 5.5 ], "texture": "#stone" },
				"south": { "uv": [ 14, 5.499, 15, 5.5 ], "texture": "#stone" },
				"west": { "uv": [ 3, 5.499, 13, 5.5 ], "texture": "#stone" },
				"east": { "uv": [ 3, 5.499, 13, 5.5 ], "texture": "#stone" }
			}
		}
	]
}