{
  "variants": {
    "facing=down": { "model": "mesoamericamythology:block/spikes", "x": 180 },
    "facing=up": { "model": "mesoamericamythology:block/spikes" },
    "facing=north": { "model": "mesoamericamythology:block/spikes", "x": 90 },
    "facing=south": { "model": "mesoamericamythology:block/spikes", "x": 90, "y": 180 },
    "facing=west": { "model": "mesoamericamythology:block/spikes", "x": 90, "y": 270 },
    "facing=east": { "model": "mesoamericamythology:block/spikes", "x": 90, "y": 90 }
  }
}