{
  "variants": {
    "facing=south": { "model": "mesoamericamythology:block/totem_levitation" },
    "facing=east": { "model": "mesoamericamythology:block/totem_levitation", "y": 90 },
    "facing=north,": { "model": "mesoamericamythology:block/totem_levitation", "y": 180 },
    "facing=west": { "model": "mesoamericamythology:block/totem_levitation", "y": 270 }
  }
}