{
	"__comment": "Designed by Darkhawx with Cubik Studio - https://cubik.studio",
	"textures": {
		"particle": "mesoamericamythology:block/god_back",
		"front": "mesoamericamythology:block/god_passive",
		"back": "mesoamericamythology:block/god_back",
		"side": "mesoamericamythology:block/god_side",
		"top": "mesoamericamythology:block/god_top"
	},
	"elements": [
		{
			"__comment": "Box1",
			"from": [ -16, -16, 0 ],
			"to": [ 32, 32, 32 ],
			"faces": {
				"down": { "uv": [ 0, 0, 16, 10.5 ], "texture": "#top" },
				"up": { "uv": [ 0, 0, 16, 10.5 ], "texture": "#top" },
				"north": { "uv": [ 0, 0, 16, 16 ], "texture": "#front" },
				"south": { "uv": [ 0, 0, 16, 16 ], "texture": "#back" },
				"west": { "uv": [ 0, 0, 11, 16 ], "texture": "#side" },
				"east": { "uv": [ 0, 0, 11, 16 ], "texture": "#side" }
			}
		}
	]
}