{
	"parent": "block/block",
	"render_type": "minecraft:cutout",
	"__comment": "Designed by Darkhawx with Cubik Studio - https://cubik.studio",
	"textures": {
		"particle": "mesoamericamythology:block/inert_pedestal_base",
		"pedestal_top_up": "mesoamericamythology:block/inert_pedestal_top_up",
		"pedestal_top_down": "mesoamericamythology:block/inert_pedestal_top_down",
		"pedestal_top_sides": "mesoamericamythology:block/inert_pedestal_top_sides",
		"pedestal_sides_up": "mesoamericamythology:block/inert_pedestal_sides_up",
		"pedestal_sides_down": "mesoamericamythology:block/inert_pedestal_sides_down",
		"pedestal_sides_sides": "mesoamericamythology:block/inert_pedestal_sides_sides",
		"pedestal_base": "mesoamericamythology:block/inert_pedestal_base"
	},
	"elements": [ 	 
		{
			"__comment": "Pedestal_Top",
			"from": [ 2, 9, 2 ],
			"to": [ 14, 15, 14 ],
			"faces": {
				"down": { "uv": [ 2, 2, 14, 14 ], "texture": "#pedestal_top_down" },
				"up": { "uv": [ 2, 2, 14, 14 ], "texture": "#pedestal_top_up" },
				"north": { "uv": [ 2, 1, 14, 7 ], "texture": "#pedestal_top_sides" },
				"south": { "uv": [ 2, 1, 14, 7 ], "texture": "#pedestal_top_sides" },
				"west": { "uv": [ 2, 1, 14, 7 ], "texture": "#pedestal_top_sides" },
				"east": { "uv": [ 2, 1, 14, 7 ], "texture": "#pedestal_top_sides" }
			}
		},
		{
			"__comment": "Pedestal_Top_Side",
			"from": [ 1, 10, 2 ],
			"to": [ 2, 14, 14 ],
			"faces": {
				"down": { "uv": [ 1, 2, 2, 14 ], "texture": "#pedestal_sides_down" },
				"up": { "uv": [ 1, 2, 2, 14 ], "texture": "#pedestal_sides_up" },
				"north": { "uv": [ 14, 2, 15, 6 ], "texture": "#pedestal_sides_sides" },
				"south": { "uv": [ 1, 2, 2, 6 ], "texture": "#pedestal_sides_sides" },
				"west": { "uv": [ 2, 2, 14, 6 ], "texture": "#pedestal_sides_sides" }
			}
		},
		{
			"__comment": "Pedestal_Top_Side1",
			"from": [ 14, 10, 2 ],
			"to": [ 15, 14, 14 ],
			"faces": {
				"down": { "uv": [ 14, 2, 15, 14 ], "texture": "#pedestal_sides_down" },
				"up": { "uv": [ 14, 2, 15, 14 ], "texture": "#pedestal_sides_up" },
				"north": { "uv": [ 1, 2, 2, 6 ], "texture": "#pedestal_sides_sides" },
				"south": { "uv": [ 14, 2, 15, 6 ], "texture": "#pedestal_sides_sides" },
				"east": { "uv": [ 2, 2, 14, 6 ], "texture": "#pedestal_sides_sides" }
			}
		},
		{
			"__comment": "Pedestal_Top_Side2",
			"from": [ 2, 10, 1 ],
			"to": [ 14, 14, 2 ],
			"faces": {
				"down": { "uv": [ 2, 14, 14, 15 ], "texture": "#pedestal_sides_down" },
				"up": { "uv": [ 2, 1, 14, 2 ], "texture": "#pedestal_sides_up" },
				"north": { "uv": [ 2, 2, 14, 6 ], "texture": "#pedestal_sides_sides" },
				"west": { "uv": [ 1, 2, 2, 6 ], "texture": "#pedestal_sides_sides" },
				"east": { "uv": [ 14, 2, 15, 6 ], "texture": "#pedestal_sides_sides" }
			}
		},
		{
			"__comment": "Pedestal_Top_Side3",
			"from": [ 2, 10, 14 ],
			"to": [ 14, 14, 15 ],
			"faces": {
				"down": { "uv": [ 2, 1, 14, 2 ], "texture": "#pedestal_sides_down" },
				"up": { "uv": [ 2, 14, 14, 15 ], "texture": "#pedestal_sides_up" },
				"south": { "uv": [ 2, 2, 14, 6 ], "texture": "#pedestal_sides_sides" },
				"west": { "uv": [ 14, 2, 15, 6 ], "texture": "#pedestal_sides_sides" },
				"east": { "uv": [ 1, 2, 2, 6 ], "texture": "#pedestal_sides_sides" }
			}
		},
		{
			"__comment": "Pedestal_Base",
			"from": [ 5, 3, 5 ],
			"to": [ 11, 9, 11 ],
			"faces": {
				"north": { "uv": [ 5, 7, 11, 13 ], "texture": "#pedestal_base" },
				"south": { "uv": [ 5, 7, 11, 13 ], "texture": "#pedestal_base" },
				"west": { "uv": [ 5, 7, 11, 13 ], "texture": "#pedestal_base" },
				"east": { "uv": [ 5, 7, 11, 13 ], "texture": "#pedestal_base" }
			}
		},
		{
			"__comment": "Pedestal_Base1",
			"from": [ 3, 1, 3 ],
			"to": [ 13, 3, 13 ],
			"faces": {
				"up": { "uv": [ 3, 3, 13, 13 ], "texture": "#pedestal_base" },
				"north": { "uv": [ 3, 13, 13, 15 ], "texture": "#pedestal_base" },
				"south": { "uv": [ 3, 13, 13, 15 ], "texture": "#pedestal_base" },
				"west": { "uv": [ 3, 13, 13, 15 ], "texture": "#pedestal_base" },
				"east": { "uv": [ 3, 13, 13, 15 ], "texture": "#pedestal_base" }
			}
		},
		{
			"__comment": "Pedestal_Base2",
			"from": [ 2, 0, 2 ],
			"to": [ 14, 1, 14 ],
			"faces": {
				"down": { "uv": [ 2, 2, 14, 14 ], "texture": "#pedestal_base", "cullface": "down" },
				"up": { "uv": [ 2, 2, 14, 14 ], "texture": "#pedestal_base" },
				"north": { "uv": [ 2, 15, 14, 16 ], "texture": "#pedestal_base" },
				"south": { "uv": [ 2, 15, 14, 16 ], "texture": "#pedestal_base" },
				"west": { "uv": [ 2, 15, 14, 16 ], "texture": "#pedestal_base" },
				"east": { "uv": [ 2, 15, 14, 16 ], "texture": "#pedestal_base" }
			}
		}
	]
}