{"parent": "block/block",
	"__comment": "Designed by Darkhawx with Cubik Studio - https://cubik.studio",
	"textures": {
		"particle": "minecraft:block/white_concrete",
		"texture": "minecraft:block/white_concrete"
	},
	"elements": [ 	 
		{
			"__comment": "Box1",
			"from": [ 6, 0, 3 ],
			"to": [ 10, 16, 13 ],
			"faces": {
				"down": { "uv": [ 6, 3, 10, 13 ], "texture": "#texture" },
				"up": { "uv": [ 6, 3, 10, 13 ], "texture": "#texture" },
				"north": { "uv": [ 6, 0, 10, 16 ], "texture": "#texture" },
				"south": { "uv": [ 6, 0, 10, 16 ], "texture": "#texture" },
				"west": { "uv": [ 3, 0, 13, 16 ], "texture": "#texture" },
				"east": { "uv": [ 3, 0, 13, 16 ], "texture": "#texture" }
			}
		},
		{
			"__comment": "Box2",
			"from": [ 4, 0, 4 ],
			"to": [ 6, 16, 12 ],
			"faces": {
				"down": { "uv": [ 4, 4, 6, 12 ], "texture": "#texture" },
				"up": { "uv": [ 4, 4, 6, 12 ], "texture": "#texture" },
				"north": { "uv": [ 10, 0, 12, 16 ], "texture": "#texture" },
				"south": { "uv": [ 4, 0, 6, 16 ], "texture": "#texture" },
				"west": { "uv": [ 4, 0, 12, 16 ], "texture": "#texture" },
				"east": { "uv": [ 4, 0, 12, 16 ], "texture": "#texture" }
			}
		},
		{
			"__comment": "Box3",
			"from": [ 3, 0, 6 ],
			"to": [ 4, 16, 10 ],
			"faces": {
				"down": { "uv": [ 3, 6, 4, 10 ], "texture": "#texture" },
				"up": { "uv": [ 3, 6, 4, 10 ], "texture": "#texture" },
				"north": { "uv": [ 12, 0, 13, 16 ], "texture": "#texture" },
				"south": { "uv": [ 3, 0, 4, 16 ], "texture": "#texture" },
				"west": { "uv": [ 6, 0, 10, 16 ], "texture": "#texture" },
				"east": { "uv": [ 6, 0, 10, 16 ], "texture": "#texture" }
			}
		},
		{
			"__comment": "Box2",
			"from": [ 10, 0, 4 ],
			"to": [ 12, 16, 12 ],
			"faces": {
				"down": { "uv": [ 10, 4, 12, 12 ], "texture": "#texture" },
				"up": { "uv": [ 10, 4, 12, 12 ], "texture": "#texture" },
				"north": { "uv": [ 4, 0, 6, 16 ], "texture": "#texture" },
				"south": { "uv": [ 10, 0, 12, 16 ], "texture": "#texture" },
				"west": { "uv": [ 4, 0, 12, 16 ], "texture": "#texture" },
				"east": { "uv": [ 4, 0, 12, 16 ], "texture": "#texture" }
			}
		},
		{
			"__comment": "Box3",
			"from": [ 12, 0, 6 ],
			"to": [ 13, 16, 10 ],
			"faces": {
				"down": { "uv": [ 12, 6, 13, 10 ], "texture": "#texture" },
				"up": { "uv": [ 12, 6, 13, 10 ], "texture": "#texture" },
				"north": { "uv": [ 3, 0, 4, 16 ], "texture": "#texture" },
				"south": { "uv": [ 12, 0, 13, 16 ], "texture": "#texture" },
				"west": { "uv": [ 6, 0, 10, 16 ], "texture": "#texture" },
				"east": { "uv": [ 6, 0, 10, 16 ], "texture": "#texture" }
			}
		}
	]
}