{
  "type": "minecraft:chest",
  "pools": [
    {
      "rolls": 1,
      "entries": [
        {
          "type": "minecraft:item",
          "name": "mesoamericamythology:god_statue_head_huitzilopochtli"
        }
      ]
    }
  ]
}